{
  "scenarioName": "SampleOverheating",
  "scenarioTitle": "Sample Scenario - Overheating",
  "scenarioDescription": "This is a scenario with an overheating system.",
  "isTutorialScenario": true,
  "scenarioObjectives": [
    {
      "objectiveType": 1,
      "isMainObjective": true,
      "isFailable": false,
      "configType": 0,
      "objectiveTimeLimit": 0,
      "isSatisfied": false
    },
    {
      "objectiveType": 2,
      "isMainObjective": false,
      "isFailable": false,
      "configType": 0,
      "objectiveTimeLimit": 5,
      "isSatisfied": false
    }
  ],
  "inventoryParts": [
    {
      "caseSpec": 1,
      "attachList": [
        {
          "portName": "Motherboard Tray",
          "portType": 25,
          "occupiedByPartId": "mobo_b450_matx_generic_-227684"
        },
        {
          "portName": "SSD Bay",
          "portType": 27,
          "occupiedByPartId": ""
        },
        {
          "portName": "HDD Bay",
          "portType": 26,
          "occupiedByPartId": ""
        },
        {
          "portName": "PSU Basement",
          "portType": 28,
          "occupiedByPartId": "psu_500w_generic_-236838"
        },
        {
          "portName": "System Fan (Front1)",
          "portType": 24,
          "occupiedByPartId": ""
        },
        {
          "portName": "System Fan (Front2)",
          "portType": 24,
          "occupiedByPartId": ""
        },
        {
          "portName": "System Fan (Front3)",
          "portType": 24,
          "occupiedByPartId": ""
        },
        {
          "portName": "System Fan (Top1)",
          "portType": 24,
          "occupiedByPartId": ""
        },
        {
          "portName": "System Fan (Top2)",
          "portType": 24,
          "occupiedByPartId": ""
        },
        {
          "portName": "System Fan (Rear)",
          "portType": 24,
          "occupiedByPartId": ""
        }
      ],
      "partId": "case_matx_generic_-226176",
      "partName": "Generic Case (mATX)",
      "partType": 10,
      "damageType": 0,
      "iconId": "icon_placeholder",
      "prefabId": "case_matx",
      "isEnabled": true,
      "isStowed": false,
      "name": "-226176",
      "hideFlags": 0
    },
    {
      "socketType": 2,
      "chipset": "B450",
      "ports": [
        {
          "portName": "CPU Socket",
          "portType": 0,
          "occupiedByPartId": "cpu_bmd_am4_generic_-228588"
        },
        {
          "portName": "DIMM Slot 1",
          "portType": 1,
          "occupiedByPartId": ""
        },
        {
          "portName": "DIMM Slot 2",
          "portType": 1,
          "occupiedByPartId": "ram_ddr4_8gb_3600_generic_-232830"
        },
        {
          "portName": "DIMM Slot 3",
          "portType": 1,
          "occupiedByPartId": ""
        },
        {
          "portName": "DIMM Slot 4",
          "portType": 1,
          "occupiedByPartId": ""
        },
        {
          "portName": "PCIe Slot (Top)",
          "portType": 2,
          "occupiedByPartId": "gpu_generic_-235640"
        },
        {
          "portName": "PCIe Slot (Bottom)",
          "portType": 2,
          "occupiedByPartId": ""
        },
        {
          "portName": "PCIe x1 Slot",
          "portType": 3,
          "occupiedByPartId": ""
        },
        {
          "portName": "24-Pin Power",
          "portType": 4,
          "occupiedByPartId": ""
        },
        {
          "portName": "8-Pin CPU Power",
          "portType": 5,
          "occupiedByPartId": ""
        },
        {
          "portName": "SATA Port 1",
          "portType": 6,
          "occupiedByPartId": ""
        },
        {
          "portName": "SATA Port 2",
          "portType": 6,
          "occupiedByPartId": ""
        },
        {
          "portName": "SATA Port 3",
          "portType": 6,
          "occupiedByPartId": ""
        },
        {
          "portName": "SATA Port 4",
          "portType": 6,
          "occupiedByPartId": ""
        },
        {
          "portName": "SATA Port 5",
          "portType": 6,
          "occupiedByPartId": ""
        },
        {
          "portName": "SATA Port 6",
          "portType": 6,
          "occupiedByPartId": ""
        },
        {
          "portName": "M.2 Slot",
          "portType": 7,
          "occupiedByPartId": "ssd_m2_generic_-234360"
        },
        {
          "portName": "Front Audio Header",
          "portType": 8,
          "occupiedByPartId": ""
        },
        {
          "portName": "Power / Reset Header",
          "portType": 9,
          "occupiedByPartId": ""
        },
        {
          "portName": "USB 2.0 Header 1",
          "portType": 10,
          "occupiedByPartId": ""
        },
        {
          "portName": "USB 2.0 Header 2",
          "portType": 10,
          "occupiedByPartId": ""
        },
        {
          "portName": "CPU Fan Header",
          "portType": 12,
          "occupiedByPartId": ""
        },
        {
          "portName": "CPU Cooler Bracket",
          "portType": 13,
          "occupiedByPartId": "cpuCooler_generic_-229700"
        },
        {
          "portName": "System Fan Header 1",
          "portType": 14,
          "occupiedByPartId": ""
        },
        {
          "portName": "System Fan Header 2",
          "portType": 14,
          "occupiedByPartId": ""
        },
        {
          "portName": "ARGB Header 1",
          "portType": 15,
          "occupiedByPartId": ""
        },
        {
          "portName": "ARGB Header 2",
          "portType": 15,
          "occupiedByPartId": ""
        },
        {
          "portName": "Rear USB Port 1",
          "portType": 11,
          "occupiedByPartId": ""
        },
        {
          "portName": "Rear USB Port 2",
          "portType": 11,
          "occupiedByPartId": ""
        },
        {
          "portName": "Rear USB Port 3",
          "portType": 11,
          "occupiedByPartId": ""
        },
        {
          "portName": "Rear USB Port 4",
          "portType": 11,
          "occupiedByPartId": ""
        },
        {
          "portName": "Rear USB Port 5",
          "portType": 11,
          "occupiedByPartId": ""
        },
        {
          "portName": "Rear USB Port 6",
          "portType": 11,
          "occupiedByPartId": ""
        },
        {
          "portName": "Rear USB Port 7",
          "portType": 11,
          "occupiedByPartId": ""
        },
        {
          "portName": "Rear USB Port 8",
          "portType": 11,
          "occupiedByPartId": ""
        },
        {
          "portName": "HDMI Output",
          "portType": 16,
          "occupiedByPartId": ""
        },
        {
          "portName": "VGA Port",
          "portType": 17,
          "occupiedByPartId": ""
        }
      ],
      "maxMemoryCapacity": 65536,
      "partId": "mobo_b450_matx_generic_-227684",
      "partName": "Generic B450 Motherboard (mATX)",
      "partType": 3,
      "damageType": 0,
      "iconId": "icon_mb",
      "prefabId": "mobo_b450_matx",
      "isEnabled": true,
      "isStowed": false,
      "name": "-227684",
      "hideFlags": 0
    },
    {
      "minFreq": 800,
      "baseFreq": 3600,
      "boostFreq": 4200,
      "cores": 6,
      "isMultiThreaded": true,
      "hasIgpu": false,
      "socketType": 2,
      "tdp": 65,
      "ihsSize": 1000,
      "perfFactor": 3600,
      "maxPwrDraw": 125,
      "partId": "cpu_bmd_am4_generic_-228588",
      "partName": "Generic BMD CPU (AM4)",
      "partType": 0,
      "damageType": 0,
      "iconId": "icon_cpu",
      "prefabId": "cpu_bmd",
      "isEnabled": true,
      "isStowed": false,
      "name": "-228588",
      "hideFlags": 0
    },
    {
      "maxTdp": 65,
      "maxFanSpeed": 2500,
      "supportedSockets": [
        2,
        3,
        4
      ],
      "partId": "cpuCooler_generic_-229700",
      "partName": "Generic CPU Cooler",
      "partType": 1,
      "damageType": 0,
      "iconId": "icon_fan",
      "prefabId": "cooler_bmd",
      "isEnabled": true,
      "isStowed": false,
      "name": "-229700",
      "hideFlags": 0
    },
    {
      "size": 8192,
      "baseFreq": 2133,
      "xmpFreqs": [
        2666,
        2933,
        3200,
        3600
      ],
      "dramType": 1,
      "partId": "ram_ddr4_8gb_3600_generic_-232830",
      "partName": "Generic DDR4 Memory - 8GB 3600 MHz",
      "partType": 4,
      "damageType": 0,
      "iconId": "icon_ram",
      "prefabId": "ram_ddr4",
      "isEnabled": true,
      "isStowed": false,
      "name": "-232830",
      "hideFlags": 0
    },
    {
      "capacity": 480,
      "busInterface": 0,
      "partId": "ssd_m2_generic_-234360",
      "partName": "Generic M.2 SSD",
      "partType": 5,
      "damageType": 0,
      "iconId": "icon_hdd",
      "prefabId": "ssdm2",
      "isEnabled": true,
      "isStowed": false,
      "name": "-234360",
      "hideFlags": 0
    },
    {
      "minFreq": 800,
      "baseFreq": 1200,
      "boostFreq": 1600,
      "memFreq": 4200,
      "perfFactor": 1200,
      "maxPwrDraw": 140,
      "ports": [],
      "partId": "gpu_generic_-235640",
      "partName": "Generic GPU",
      "partType": 2,
      "damageType": 0,
      "iconId": "icon_gpu",
      "prefabId": "gpu",
      "isEnabled": true,
      "isStowed": false,
      "name": "-235640",
      "hideFlags": 0
    },
    {
      "maxPwr": 500,
      "partId": "psu_500w_generic_-236838",
      "partName": "Generic Power Supply - 500 W",
      "partType": 8,
      "damageType": 0,
      "iconId": "icon_psu",
      "prefabId": "psu",
      "isEnabled": true,
      "isStowed": false,
      "name": "-236838",
      "hideFlags": 0
    }
  ],
  "scenarioUUID": "-170470212"
}