%YAML 1.1
%TAG !u! tag:unity3d.com,2011:
--- !u!114 &11400000
MonoBehaviour:
  m_ObjectHideFlags: 0
  m_CorrespondingSourceObject: {fileID: 0}
  m_PrefabInstance: {fileID: 0}
  m_PrefabAsset: {fileID: 0}
  m_GameObject: {fileID: 0}
  m_Enabled: 1
  m_EditorHideFlags: 0
  m_Script: {fileID: 11500000, guid: ed02ebad1128db549af1cccb9676291b, type: 3}
  m_Name: ram_ddr4_8gb_3600_generic
  m_EditorClassIdentifier: 
  partId: ram_ddr4_8gb_3600_generic
  partName: Generic DDR4 Memory - 8GB 3600 MHz
  partType: 4
  damageType: 0
  iconId: icon_ram
  prefabId: ram_ddr4
  isEnabled: 1
  isStowed: 0
  size: 8192
  baseFreq: 2133
  xmpFreqs: 6a0a0000750b0000800c0000100e0000
  dramType: 1
