%YAML 1.1
%TAG !u! tag:unity3d.com,2011:
--- !u!114 &11400000
MonoBehaviour:
  m_ObjectHideFlags: 0
  m_CorrespondingSourceObject: {fileID: 0}
  m_PrefabInstance: {fileID: 0}
  m_PrefabAsset: {fileID: 0}
  m_GameObject: {fileID: 0}
  m_Enabled: 1
  m_EditorHideFlags: 0
  m_Script: {fileID: 11500000, guid: 4b0fe402d2276da4097ac0509c46908c, type: 3}
  m_Name: ssd_m2_generic
  m_EditorClassIdentifier: 
  partId: ssd_m2_generic
  partName: Generic M.2 SSD
  partType: 5
  damageType: 0
  iconId: icon_hdd
  prefabId: ssdm2
  isEnabled: 1
  isStowed: 0
  capacity: 480
  busInterface: 0
